{
  "Control": "ctrl",
  "Tokens": "[prefix]_[name]_[side]_[suffix][padding]_[type]",
  "UpVector": "upV",
  "Geometry": "geo",
  "Curve": "crv",
  "AtVector": "atV",
  "Effector": "eff",
  "Bone": "bn",
  "Null": "srt",
  "Root": "rt",
  "Implicit": "imp",
  "Deformer": "def"
}